*** Darwin 9x3 ***
Turn = 0.
  012
0 h..
1 ...
2 .h.
3 ...
4 .f.
5 ...
6 ...
7 ...
8 ..h

Turn = 1.
  012
0 h..
1 ...
2 ..h
3 ...
4 .f.
5 ...
6 ...
7 ..h
8 ...

*** Darwin 9x5 ***
Turn = 0.
  01234
0 .....
1 .....
2 ...tr
3 .....
4 ...t.
5 ....f
6 h....
7 .....
8 .....

Turn = 1.
  01234
0 .....
1 ....r
2 ...t.
3 .....
4 ...t.
5 ....f
6 .h...
7 .....
8 .....

Turn = 2.
  01234
0 ....r
1 .....
2 ...t.
3 .....
4 ...t.
5 ....f
6 ..h..
7 .....
8 .....

Turn = 3.
  01234
0 ....r
1 .....
2 ...t.
3 .....
4 ...t.
5 ....f
6 ...h.
7 .....
8 .....

Turn = 4.
  01234
0 ....r
1 .....
2 ...t.
3 .....
4 ...t.
5 ....f
6 ....h
7 .....
8 .....

Turn = 5.
  01234
0 ....r
1 .....
2 ...t.
3 .....
4 ...t.
5 ....f
6 ....h
7 .....
8 .....

*** Darwin 3x8 ***
Turn = 0.
  01234567
0 .rtt.rr.
1 .t......
2 fh....t.

Turn = 1.
  01234567
0 r.ttrr..
1 .t......
2 ft....t.

Turn = 2.
  01234567
0 r.trrr..
1 .t......
2 ft....t.

Turn = 3.
  01234567
0 r.rrr...
1 .t...r..
2 tt....t.

*** Darwin 2x2 ***
Turn = 0.
  01
0 .t
1 .h

Turn = 1.
  01
0 .t
1 .h

Turn = 2.
  01
0 .t
1 .h

Turn = 3.
  01
0 .t
1 .h

Turn = 4.
  01
0 .t
1 .t

*** Darwin 2x5 ***
Turn = 0.
  01234
0 ....r
1 .....

Turn = 1.
  01234
0 .....
1 ....r

Turn = 2.
  01234
0 .....
1 ....r

Turn = 3.
  01234
0 .....
1 ...r.

Turn = 4.
  01234
0 .....
1 ..r..

Turn = 5.
  01234
0 .....
1 .r...

*** Darwin 5x3 ***
Turn = 0.
  012
0 .hr
1 f..
2 .f.
3 ..h
4 f..

*** Darwin 2x9 ***
Turn = 0.
  012345678
0 .h.......
1 .f.......

Turn = 3.
  012345678
0 h........
1 .f.......

*** Darwin 4x2 ***
Turn = 0.
  01
0 t.
1 t.
2 th
3 ..

Turn = 3.
  01
0 t.
1 t.
2 tt
3 ..

*** Darwin 6x3 ***
Turn = 0.
  012
0 ...
1 ...
2 .t.
3 h..
4 .ht
5 ...

Turn = 1.
  012
0 ...
1 ...
2 .t.
3 h..
4 .ht
5 ...

Turn = 2.
  012
0 ...
1 ...
2 .t.
3 h..
4 .ht
5 ...

Turn = 3.
  012
0 ...
1 ...
2 .t.
3 h..
4 .ht
5 ...

Turn = 4.
  012
0 ...
1 ...
2 .t.
3 h..
4 .tt
5 ...

*** Darwin 9x2 ***
Turn = 0.
  01
0 f.
1 .r
2 th
3 r.
4 ..
5 ..
6 ..
7 .h
8 ..

Turn = 1.
  01
0 fr
1 ..
2 th
3 .r
4 ..
5 ..
6 ..
7 h.
8 ..

Turn = 2.
  01
0 fr
1 ..
2 th
3 .r
4 ..
5 ..
6 ..
7 h.
8 ..

Turn = 3.
  01
0 fr
1 ..
2 tr
3 .r
4 ..
5 ..
6 ..
7 h.
8 ..

Turn = 4.
  01
0 f.
1 .r
2 tr
3 .r
4 ..
5 ..
6 ..
7 h.
8 ..

*** Darwin 3x2 ***
Turn = 0.
  01
0 ff
1 .h
2 ft

Turn = 1.
  01
0 ff
1 .t
2 ft

Turn = 2.
  01
0 ff
1 .t
2 ft

Turn = 3.
  01
0 ff
1 .t
2 tt

Turn = 4.
  01
0 ft
1 .t
2 tt

*** Darwin 5x8 ***
Turn = 0.
  01234567
0 tr..t..t
1 f.......
2 ..t....f
3 ........
4 ....ft.h

Turn = 2.
  01234567
0 rr..t..t
1 .r......
2 ..t....f
3 ........
4 ....ftt.

Turn = 4.
  01234567
0 r...t..t
1 ..t.....
2 r.t....f
3 ........
4 ....ftt.

*** Darwin 5x5 ***
Turn = 0.
  01234
0 .rh..
1 t..f.
2 ..f.r
3 .....
4 .....

Turn = 3.
  01234
0 th...
1 t..f.
2 .rr..
3 .....
4 .....

*** Darwin 8x3 ***
Turn = 0.
  012
0 ..f
1 .rr
2 ...
3 ...
4 ...
5 .tr
6 .t.
7 ..f

*** Darwin 6x9 ***
Turn = 0.
  012345678
0 h........
1 .....r...
2 .........
3 ......h..
4 ......r..
5 .....r...

*** Darwin 4x5 ***
Turn = 0.
  01234
0 ..ffh
1 ...f.
2 .r...
3 .....

Turn = 1.
  01234
0 ..ff.
1 .r.fh
2 .....
3 .....

Turn = 2.
  01234
0 .rff.
1 ...f.
2 ....h
3 .....

Turn = 3.
  01234
0 .rff.
1 ...f.
2 .....
3 ....h

Turn = 4.
  01234
0 .rrf.
1 ...f.
2 .....
3 ....h

*** Darwin 5x2 ***
Turn = 0.
  01
0 tt
1 .t
2 tf
3 t.
4 ..

Turn = 2.
  01
0 tt
1 .t
2 tf
3 t.
4 ..

Turn = 4.
  01
0 tt
1 .t
2 tt
3 t.
4 ..

*** Darwin 2x2 ***
Turn = 0.
  01
0 .r
1 .t

Turn = 3.
  01
0 .r
1 .r

*** Darwin 6x9 ***
Turn = 0.
  012345678
0 .......t.
1 ......r.f
2 .........
3 .........
4 .........
5 ....h...f

Turn = 2.
  012345678
0 ......rt.
1 ........f
2 .........
3 ....h....
4 .........
5 ........f

Turn = 4.
  012345678
0 .......rr
1 ....h...f
2 .........
3 .........
4 .........
5 ........f

*** Darwin 2x5 ***
Turn = 0.
  01234
0 t....
1 hr...

Turn = 2.
  01234
0 t....
1 rr...

*** Darwin 9x5 ***
Turn = 0.
  01234
0 hr...
1 tt...
2 .....
3 ...t.
4 .....
5 .....
6 ....r
7 h....
8 .....

Turn = 2.
  01234
0 t.r..
1 tt...
2 .....
3 ...t.
4 .....
5 h....
6 .....
7 .....
8 ....r

*** Darwin 4x8 ***
Turn = 0.
  01234567
0 ....r..h
1 ...ht...
2 f....t..
3 ..r..r..

Turn = 2.
  01234567
0 ......r.
1 ..r.t...
2 f....t.h
3 ...h...r

Turn = 4.
  01234567
0 ..r....r
1 ....t...
2 f....t.h
3 ...h...r

*** Darwin 2x7 ***
Turn = 0.
  0123456
0 tt.....
1 .h...hh

Turn = 1.
  0123456
0 tt.....
1 ..h..hh

Turn = 2.
  0123456
0 tt.....
1 ...h.hh

Turn = 3.
  0123456
0 tt.....
1 ....hhh

Turn = 4.
  0123456
0 tt.....
1 ....hhh

Turn = 5.
  0123456
0 tt.....
1 ....hhh

*** Darwin 8x7 ***
Turn = 0.
  0123456
0 ....t..
1 h......
2 ...r.t.
3 .f.....
4 .......
5 .......
6 .h.....
7 ....h..

Turn = 3.
  0123456
0 ....t..
1 .......
2 r....t.
3 .f.....
4 h......
5 .......
6 h......
7 ......h

*** Darwin 2x7 ***
Turn = 0.
  0123456
0 .t.h..r
1 t....t.

Turn = 3.
  0123456
0 .t....h
1 t....tr

*** Darwin 8x5 ***
Turn = 0.
  01234
0 .t..t
1 .rh..
2 ....t
3 .....
4 ...tr
5 .....
6 .f...
7 ....f

Turn = 3.
  01234
0 rt..t
1 ....t
2 ....t
3 .....
4 ..r..
5 .....
6 .f.r.
7 ....f

*** Darwin 7x2 ***
Turn = 0.
  01
0 t.
1 r.
2 ..
3 rf
4 ht
5 ..
6 t.

Turn = 1.
  01
0 t.
1 ..
2 r.
3 rr
4 tt
5 ..
6 t.

Turn = 2.
  01
0 t.
1 ..
2 rr
3 r.
4 tt
5 ..
6 t.

Turn = 3.
  01
0 t.
1 .r
2 r.
3 r.
4 .t
5 r.
6 t.

Turn = 4.
  01
0 tr
1 ..
2 r.
3 ..
4 rt
5 r.
6 r.
