*** Darwin 4x3 ***
Turn = 0.
  012
0 .hf
1 th.
2 .ht
3 .f.

Turn = 110.
  012
0 t.f
1 tt.
2 .tt
3 .t.

Turn = 220.
  012
0 t.f
1 tt.
2 .tt
3 .t.

Turn = 330.
  012
0 t.f
1 tt.
2 .tt
3 .t.

Turn = 440.
  012
0 t.f
1 tt.
2 .tt
3 .t.

Turn = 550.
  012
0 t.f
1 tt.
2 .tt
3 .t.

Turn = 660.
  012
0 t.f
1 tt.
2 .tt
3 .t.

Turn = 770.
  012
0 t.f
1 tt.
2 .tt
3 .t.

Turn = 880.
  012
0 t.f
1 tt.
2 .tt
3 .t.

Turn = 990.
  012
0 t.f
1 tt.
2 .tt
3 .t.

Turn = 1100.
  012
0 t.f
1 tt.
2 .tt
3 .t.

*** Darwin 7x9 ***
Turn = 0.
  012345678
0 ......r..
1 .t.......
2 .........
3 .........
4 .......h.
5 .......f.
6 .........

Turn = 79.
  012345678
0 tt.......
1 .t.......
2 .........
3 .........
4 .........
5 .......f.
6 .........

Turn = 158.
  012345678
0 tt.......
1 .t.......
2 .........
3 .........
4 .........
5 .......f.
6 .........

Turn = 237.
  012345678
0 tt.......
1 .t.......
2 .........
3 .........
4 .........
5 .......f.
6 .........

*** Darwin 9x9 ***
Turn = 0.
  012345678
0 .........
1 .........
2 .h.....h.
3 ..r......
4 .r.....r.
5 .........
6 ......t..
7 .........
8 ...t.....

Turn = 101.
  012345678
0 ....r....
1 ....r....
2 .........
3 .........
4 ...rr....
5 .........
6 ......tt.
7 .........
8 r........

Turn = 202.
  012345678
0 .........
1 .........
2 .........
3 .........
4 .........
5 .......tt
6 ......ttt
7 ........t
8 ........t

Turn = 303.
  012345678
0 .........
1 .........
2 .........
3 .........
4 .........
5 .......tt
6 ......ttt
7 ........t
8 ........t

Turn = 404.
  012345678
0 .........
1 .........
2 .........
3 .........
4 .........
5 .......tt
6 ......ttt
7 ........t
8 ........t

Turn = 505.
  012345678
0 .........
1 .........
2 .........
3 .........
4 .........
5 .......tt
6 ......ttt
7 ........t
8 ........t

Turn = 606.
  012345678
0 .........
1 .........
2 .........
3 .........
4 .........
5 .......tt
6 ......ttt
7 ........t
8 ........t

Turn = 707.
  012345678
0 .........
1 .........
2 .........
3 .........
4 .........
5 .......tt
6 ......ttt
7 ........t
8 ........t

Turn = 808.
  012345678
0 .........
1 .........
2 .........
3 .........
4 .........
5 .......tt
6 ......ttt
7 ........t
8 ........t

Turn = 909.
  012345678
0 .........
1 .........
2 .........
3 .........
4 .........
5 .......tt
6 ......ttt
7 ........t
8 ........t

Turn = 1010.
  012345678
0 .........
1 .........
2 .........
3 .........
4 .........
5 .......tt
6 ......ttt
7 ........t
8 ........t

Turn = 1111.
  012345678
0 .........
1 .........
2 .........
3 .........
4 .........
5 .......tt
6 ......ttt
7 ........t
8 ........t

Turn = 1212.
  012345678
0 .........
1 .........
2 .........
3 .........
4 .........
5 .......tt
6 ......ttt
7 ........t
8 ........t

Turn = 1313.
  012345678
0 .........
1 .........
2 .........
3 .........
4 .........
5 .......tt
6 ......ttt
7 ........t
8 ........t

Turn = 1414.
  012345678
0 .........
1 .........
2 .........
3 .........
4 .........
5 .......tt
6 ......ttt
7 ........t
8 ........t

Turn = 1515.
  012345678
0 .........
1 .........
2 .........
3 .........
4 .........
5 .......tt
6 ......ttt
7 ........t
8 ........t

Turn = 1616.
  012345678
0 .........
1 .........
2 .........
3 .........
4 .........
5 .......tt
6 ......ttt
7 ........t
8 ........t

*** Darwin 2x5 ***
Turn = 0.
  01234
0 ....r
1 ..h..

Turn = 188.
  01234
0 .r...
1 ...r.

Turn = 376.
  01234
0 r....
1 ...r.

Turn = 564.
  01234
0 .r..r
1 .....

Turn = 752.
  01234
0 r....
1 ....r

Turn = 940.
  01234
0 .....
1 r...r

*** Darwin 9x1 ***
Turn = 0.
  0
0 .
1 h
2 t
3 .
4 .
5 f
6 .
7 .
8 .

Turn = 97.
  0
0 .
1 t
2 t
3 .
4 .
5 f
6 .
7 .
8 .

Turn = 194.
  0
0 .
1 t
2 t
3 .
4 .
5 f
6 .
7 .
8 .

*** Darwin 4x2 ***
Turn = 0.
  01
0 .r
1 .t
2 ff
3 hf

Turn = 143.
  01
0 rr
1 .r
2 r.
3 rr

Turn = 286.
  01
0 rr
1 r.
2 .r
3 rr

Turn = 429.
  01
0 rr
1 r.
2 .r
3 rr

Turn = 572.
  01
0 rr
1 rr
2 .r
3 r.

Turn = 715.
  01
0 rr
1 rr
2 r.
3 .r

Turn = 858.
  01
0 rr
1 .r
2 rr
3 r.

Turn = 1001.
  01
0 rr
1 r.
2 rr
3 .r

Turn = 1144.
  01
0 .r
1 rr
2 rr
3 r.

Turn = 1287.
  01
0 .r
1 r.
2 rr
3 rr

Turn = 1430.
  01
0 rr
1 r.
2 rr
3 r.

Turn = 1573.
  01
0 rr
1 rr
2 rr
3 ..

*** Darwin 2x5 ***
Turn = 0.
  01234
0 h.t.t
1 ..rfh

Turn = 174.
  01234
0 rr...
1 rrrr.

Turn = 348.
  01234
0 ..rrr
1 .r.rr

Turn = 522.
  01234
0 rr.rr
1 rr...

Turn = 696.
  01234
0 rrr..
1 r..rr

Turn = 870.
  01234
0 .r.rr
1 r..rr

*** Darwin 7x4 ***
Turn = 0.
  0123
0 ...r
1 ...r
2 h.f.
3 .f..
4 ....
5 .t..
6 ...f

Turn = 24.
  0123
0 r...
1 r..r
2 ..r.
3 ..r.
4 ....
5 .t.r
6 ....

Turn = 48.
  0123
0 ...r
1 .r..
2 ...r
3 ....
4 .r..
5 r...
6 rr..

Turn = 72.
  0123
0 r..r
1 ....
2 ....
3 r...
4 .r..
5 r...
6 .r.r

Turn = 96.
  0123
0 r..r
1 ..rr
2 ....
3 rr.r
4 ....
5 ....
6 ....

Turn = 120.
  0123
0 r...
1 r..r
2 ....
3 .r..
4 r...
5 .r..
6 ...r

Turn = 144.
  0123
0 ..r.
1 ..r.
2 ....
3 ...r
4 rr..
5 ....
6 .r.r

Turn = 168.
  0123
0 ....
1 ....
2 .r..
3 rrr.
4 ...r
5 r.r.
6 ....

Turn = 192.
  0123
0 r..r
1 r...
2 r...
3 ....
4 ...r
5 .rr.
6 ....

Turn = 216.
  0123
0 .r..
1 ...r
2 r...
3 .r.r
4 ..r.
5 ....
6 ...r

Turn = 240.
  0123
0 ...r
1 r.rr
2 ....
3 ..r.
4 ....
5 .r..
6 r...

Turn = 264.
  0123
0 rrrr
1 rr..
2 r...
3 ....
4 ....
5 ....
6 ....

Turn = 288.
  0123
0 ....
1 ....
2 .r..
3 ...r
4 ..rr
5 r...
6 rr..

Turn = 312.
  0123
0 r...
1 r...
2 r...
3 ....
4 ....
5 ..rr
6 r..r

Turn = 336.
  0123
0 r...
1 ....
2 ....
3 ..rr
4 r..r
5 ...r
6 ..r.

Turn = 360.
  0123
0 .r.r
1 r...
2 .r..
3 ....
4 r.r.
5 ....
6 .r..

Turn = 384.
  0123
0 rrr.
1 r..r
2 ....
3 ....
4 ...r
5 ....
6 ...r

Turn = 408.
  0123
0 .r.r
1 ....
2 ....
3 .r..
4 r...
5 .r..
6 ..rr

Turn = 432.
  0123
0 r...
1 ....
2 ...r
3 ...r
4 r...
5 r.r.
6 r...

Turn = 456.
  0123
0 rrr.
1 ....
2 ....
3 ....
4 ..r.
5 r..r
6 ...r

Turn = 480.
  0123
0 r...
1 ....
2 rrrr
3 .r..
4 ....
5 ....
6 r...

Turn = 504.
  0123
0 r..r
1 ....
2 ...r
3 r...
4 r...
5 ..r.
6 ...r

Turn = 528.
  0123
0 rr..
1 r.r.
2 ....
3 ....
4 ...r
5 .r..
6 r...

Turn = 552.
  0123
0 rr..
1 r.r.
2 r..r
3 ....
4 ....
5 ....
6 r...

Turn = 576.
  0123
0 r.r.
1 r...
2 r...
3 ....
4 ...r
5 ...r
6 ..r.

Turn = 600.
  0123
0 ..rr
1 ..r.
2 ....
3 ...r
4 ....
5 r...
6 ..rr

Turn = 624.
  0123
0 r.r.
1 ..r.
2 ..rr
3 r..r
4 ....
5 ....
6 ....

Turn = 648.
  0123
0 r..r
1 rr.r
2 ....
3 ..r.
4 ....
5 ....
6 r...

Turn = 672.
  0123
0 ....
1 ....
2 r..r
3 ..r.
4 ....
5 r..r
6 r..r

Turn = 696.
  0123
0 rr..
1 ....
2 ....
3 ...r
4 ....
5 r...
6 rrr.

Turn = 720.
  0123
0 .r.r
1 rr..
2 ....
3 ...r
4 ....
5 r...
6 ...r

Turn = 744.
  0123
0 ..rr
1 ....
2 .r..
3 ...r
4 ..rr
5 ....
6 ..r.

Turn = 768.
  0123
0 ....
1 ....
2 rr.r
3 rr..
4 r...
5 ....
6 r...

Turn = 792.
  0123
0 r...
1 ..rr
2 ..r.
3 ...r
4 ...r
5 ....
6 ..r.

Turn = 816.
  0123
0 r...
1 r...
2 ...r
3 .r..
4 ....
5 rr..
6 r...

Turn = 840.
  0123
0 r..r
1 ..rr
2 ...r
3 ....
4 ....
5 ....
6 .rr.

Turn = 864.
  0123
0 rr.r
1 ....
2 ...r
3 ....
4 ....
5 r..r
6 r...

Turn = 888.
  0123
0 r..r
1 ...r
2 ....
3 ....
4 .r..
5 r...
6 r..r

Turn = 912.
  0123
0 r...
1 ....
2 ...r
3 r...
4 ..r.
5 r...
6 rr..

Turn = 936.
  0123
0 r..r
1 .r.r
2 ....
3 ..r.
4 ....
5 .r..
6 r...

Turn = 960.
  0123
0 ....
1 ....
2 r...
3 rr..
4 ..r.
5 ..r.
6 ..rr

Turn = 984.
  0123
0 r...
1 ...r
2 ....
3 rr..
4 ....
5 ...r
6 .rr.

Turn = 1008.
  0123
0 ....
1 .r.r
2 r...
3 ....
4 ....
5 r.rr
6 ..r.

Turn = 1032.
  0123
0 ..r.
1 ....
2 r...
3 r...
4 ....
5 r..r
6 r..r

Turn = 1056.
  0123
0 r.r.
1 ....
2 ....
3 ....
4 ...r
5 ...r
6 r.rr

Turn = 1080.
  0123
0 r.r.
1 ..r.
2 ....
3 ....
4 ....
5 .r..
6 rrr.

*** Darwin 2x1 ***
Turn = 0.
  0
0 h
1 f

Turn = 175.
  0
0 h
1 f

Turn = 350.
  0
0 h
1 f

Turn = 525.
  0
0 h
1 f

Turn = 700.
  0
0 h
1 f

Turn = 875.
  0
0 h
1 f

Turn = 1050.
  0
0 h
1 f

Turn = 1225.
  0
0 h
1 f

Turn = 1400.
  0
0 h
1 f

Turn = 1575.
  0
0 h
1 f

*** Darwin 1x7 ***
Turn = 0.
  0123456
0 .fh.f.r

Turn = 157.
  0123456
0 rrr.r..

*** Darwin 10x3 ***
Turn = 0.
  012
0 .tt
1 ..h
2 t..
3 h.t
4 .r.
5 ...
6 .h.
7 r..
8 ..t
9 hr.

Turn = 60.
  012
0 ttt
1 ttt
2 ttt
3 .tt
4 ..t
5 ...
6 ...
7 ...
8 ...
9 ...

Turn = 120.
  012
0 ttt
1 ttt
2 ttt
3 .tt
4 ..t
5 ...
6 ...
7 ...
8 ...
9 ...

Turn = 180.
  012
0 ttt
1 ttt
2 ttt
3 .tt
4 ..t
5 ...
6 ...
7 ...
8 ...
9 ...

Turn = 240.
  012
0 ttt
1 ttt
2 ttt
3 .tt
4 ..t
5 ...
6 ...
7 ...
8 ...
9 ...

Turn = 300.
  012
0 ttt
1 ttt
2 ttt
3 .tt
4 ..t
5 ...
6 ...
7 ...
8 ...
9 ...

Turn = 360.
  012
0 ttt
1 ttt
2 ttt
3 .tt
4 ..t
5 ...
6 ...
7 ...
8 ...
9 ...

Turn = 420.
  012
0 ttt
1 ttt
2 ttt
3 .tt
4 ..t
5 ...
6 ...
7 ...
8 ...
9 ...

Turn = 480.
  012
0 ttt
1 ttt
2 ttt
3 .tt
4 ..t
5 ...
6 ...
7 ...
8 ...
9 ...

Turn = 540.
  012
0 ttt
1 ttt
2 ttt
3 .tt
4 ..t
5 ...
6 ...
7 ...
8 ...
9 ...

Turn = 600.
  012
0 ttt
1 ttt
2 ttt
3 .tt
4 ..t
5 ...
6 ...
7 ...
8 ...
9 ...

*** Darwin 2x5 ***
Turn = 0.
  01234
0 r.ft.
1 ftrr.

Turn = 73.
  01234
0 .ttt.
1 tttt.

Turn = 146.
  01234
0 .ttt.
1 tttt.

Turn = 219.
  01234
0 .ttt.
1 tttt.

Turn = 292.
  01234
0 .ttt.
1 tttt.

Turn = 365.
  01234
0 .ttt.
1 tttt.

Turn = 438.
  01234
0 .ttt.
1 tttt.

Turn = 511.
  01234
0 .ttt.
1 tttt.

Turn = 584.
  01234
0 .ttt.
1 tttt.

Turn = 657.
  01234
0 .ttt.
1 tttt.

Turn = 730.
  01234
0 .ttt.
1 tttt.

Turn = 803.
  01234
0 .ttt.
1 tttt.

Turn = 876.
  01234
0 .ttt.
1 tttt.

*** Darwin 6x10 ***
Turn = 0.
  0123456789
0 ....t...r.
1 rr.f.h..t.
2 f..t.r....
3 rf..rf....
4 ..h.......
5 ....h.....

Turn = 31.
  0123456789
0 .....rrttt
1 .....rrrtt
2 ........tt
3 ........t.
4 ..........
5 .......rrr

Turn = 62.
  0123456789
0 ...r..r..r
1 ....r.....
2 ........rr
3 ..r...r..r
4 ..r..r....
5 ..r..rr.rr

Turn = 93.
  0123456789
0 ...rr..r..
1 ....rr..r.
2 r....r...r
3 ......r.r.
4 .......r.r
5 .......rrr

Turn = 124.
  0123456789
0 rr.r..r..r
1 ..r...rr..
2 rr...rr...
3 ..........
4 .r.......r
5 r.r.......

Turn = 155.
  0123456789
0 ....rr..rr
1 rr.....r..
2 ..rr.....r
3 ..rr.....r
4 ...r.r....
5 ....r.....

Turn = 186.
  0123456789
0 .rr....rr.
1 ...r.r..rr
2 r........r
3 r.........
4 r.........
5 rr..r...r.

Turn = 217.
  0123456789
0 ..rr.r....
1 rrr.r....r
2 .r........
3 .........r
4 ...r..r..r
5 ..rrr.....

Turn = 248.
  0123456789
0 rr.r..r...
1 ..r.rr....
2 .r........
3 ..r.....r.
4 .......rr.
5 ..rr.r..r.

Turn = 279.
  0123456789
0 r.rr......
1 .rr.r..r..
2 .rr....rr.
3 ...r.r....
4 ..........
5 r....r.r..

Turn = 310.
  0123456789
0 ........rr
1 rrr.....rr
2 ........rr
3 ..r...r...
4 .r.......r
5 r...r....r

Turn = 341.
  0123456789
0 r.r......r
1 ..r.......
2 .r.rr.r...
3 ..r..r....
4 .r.......r
5 ..r..rrr..

Turn = 372.
  0123456789
0 rrr.r....r
1 rrr.r.....
2 .....r....
3 .r.......r
4 r.........
5 rr......r.

*** Darwin 5x7 ***
Turn = 0.
  0123456
0 .......
1 .......
2 .......
3 h......
4 t......

Turn = 197.
  0123456
0 .......
1 .......
2 .......
3 t......
4 t......

*** Darwin 1x8 ***
Turn = 0.
  01234567
0 t.ff.rf.

Turn = 98.
  01234567
0 .r.r.rrr

Turn = 196.
  01234567
0 .rrrr.r.

*** Darwin 9x5 ***
Turn = 0.
  01234
0 h.rt.
1 .r...
2 ..r..
3 ..r..
4 .....
5 r....
6 .r...
7 ..r.h
8 .....

Turn = 191.
  01234
0 ....r
1 .....
2 .....
3 .....
4 .....
5 rr...
6 ..r.r
7 rrr..
8 rr...

*** Darwin 7x3 ***
Turn = 0.
  012
0 f..
1 ...
2 ...
3 .r.
4 .ht
5 r..
6 ...

Turn = 80.
  012
0 ...
1 ...
2 r..
3 r..
4 ...
5 ..r
6 .rr

Turn = 160.
  012
0 ...
1 r..
2 ...
3 ...
4 .rr
5 ..r
6 r..

*** Darwin 10x5 ***
Turn = 0.
  01234
0 .h..r
1 h..f.
2 .r...
3 ...r.
4 ...tr
5 .....
6 ..h.f
7 ....h
8 .f...
9 .....

Turn = 72.
  01234
0 ....r
1 r..rr
2 .....
3 r....
4 r...r
5 .r..r
6 r...r
7 .....
8 .....
9 ..r..

Turn = 144.
  01234
0 ..r..
1 ..rr.
2 .....
3 ....r
4 ....r
5 r....
6 .....
7 .rrr.
8 ....r
9 .r..r

Turn = 216.
  01234
0 .r..r
1 .....
2 .....
3 ....r
4 .....
5 .....
6 rr..r
7 .r..r
8 ..r.r
9 ...rr

Turn = 288.
  01234
0 r...r
1 .rr.r
2 .....
3 .....
4 r....
5 .....
6 ...r.
7 .....
8 .r..r
9 rrr..

Turn = 360.
  01234
0 rr..r
1 rr...
2 ...r.
3 .....
4 ..rr.
5 ....r
6 .....
7 .....
8 rr...
9 r....

Turn = 432.
  01234
0 ...rr
1 ..r.r
2 ..rr.
3 .....
4 rrr..
5 .....
6 .....
7 ..r..
8 .....
9 r...r

Turn = 504.
  01234
0 r..rr
1 r...r
2 ...r.
3 ...r.
4 r....
5 r....
6 ....r
7 .....
8 .r...
9 ....r

Turn = 576.
  01234
0 ...r.
1 .r..r
2 .....
3 r....
4 ....r
5 r....
6 r....
7 ....r
8 r....
9 .rr.r

Turn = 648.
  01234
0 ..r..
1 .....
2 ....r
3 r...r
4 ...rr
5 r....
6 .....
7 .r...
8 rr...
9 r..r.

Turn = 720.
  01234
0 r....
1 .....
2 .....
3 ..r.r
4 ....r
5 ...rr
6 ....r
7 rr...
8 .r...
9 r.r..

Turn = 792.
  01234
0 rr.r.
1 ...rr
2 rr...
3 r....
4 .r...
5 .....
6 .....
7 ....r
8 .....
9 r...r

Turn = 864.
  01234
0 r..rr
1 rr...
2 rr..r
3 r....
4 .....
5 rr...
6 .....
7 .....
8 .....
9 r....

Turn = 936.
  01234
0 r...r
1 ...rr
2 ..r..
3 .....
4 r....
5 .....
6 r....
7 rr...
8 r....
9 r...r

Turn = 1008.
  01234
0 ....r
1 r....
2 r....
3 r....
4 r....
5 r....
6 ..r..
7 ..r.r
8 ...r.
9 r.r..

Turn = 1080.
  01234
0 .r...
1 r.r..
2 ....r
3 .....
4 .r...
5 rr..r
6 ....r
7 ..r..
8 ..r..
9 ..r..

Turn = 1152.
  01234
0 ..r.r
1 r....
2 ....r
3 r....
4 ....r
5 .....
6 r..rr
7 .r...
8 ....r
9 .r...

Turn = 1224.
  01234
0 .....
1 .....
2 .....
3 ....r
4 .rr..
5 ....r
6 ....r
7 r..r.
8 r....
9 rr.rr

Turn = 1296.
  01234
0 .r.rr
1 r....
2 ...r.
3 r...r
4 ..r.r
5 r....
6 ....r
7 .....
8 .....
9 ....r

Turn = 1368.
  01234
0 r.r..
1 rr...
2 .....
3 .....
4 ....r
5 ...rr
6 ....r
7 .....
8 rr...
9 rr...

*** Darwin 4x5 ***
Turn = 0.
  01234
0 fh.f.
1 ....r
2 ..hr.
3 ..rrr

Turn = 13.
  01234
0 rrrfr
1 r....
2 .r...
3 rr...

Turn = 26.
  01234
0 r.r.r
1 r....
2 rr..r
3 r..r.

Turn = 39.
  01234
0 r..r.
1 r..rr
2 rr...
3 r...r

Turn = 52.
  01234
0 .rr.r
1 .r...
2 r....
3 rrr.r

Turn = 65.
  01234
0 rr.rr
1 r.r..
2 r....
3 r...r

Turn = 78.
  01234
0 r.r.r
1 rr...
2 rr..r
3 .r...

Turn = 91.
  01234
0 .rr.r
1 .....
2 rr.rr
3 ...rr

Turn = 104.
  01234
0 r...r
1 rrr..
2 .rr..
3 r.r..

Turn = 117.
  01234
0 rrr..
1 .rr.r
2 ...r.
3 ..r.r

Turn = 130.
  01234
0 r.r.r
1 rr.rr
2 .....
3 r.r..

Turn = 143.
  01234
0 .r..r
1 r..rr
2 ...r.
3 r..rr

Turn = 156.
  01234
0 ..r.r
1 ..r..
2 .r..r
3 rrr.r

Turn = 169.
  01234
0 rrr..
1 ..r..
2 ..rr.
3 r.r.r

Turn = 182.
  01234
0 rr.r.
1 .r..r
2 ...rr
3 r..r.

Turn = 195.
  01234
0 r....
1 ..r.r
2 .rrr.
3 .r.rr

Turn = 208.
  01234
0 r..rr
1 r...r
2 ..r.r
3 rr...

Turn = 221.
  01234
0 ..r.r
1 r..r.
2 ..rrr
3 r...r

Turn = 234.
  01234
0 .r...
1 rr...
2 r.rr.
3 .rr.r

Turn = 247.
  01234
0 rrr..
1 rrrr.
2 ....r
3 .r...

Turn = 260.
  01234
0 rr..r
1 r....
2 r..rr
3 .r..r

Turn = 273.
  01234
0 ...r.
1 r..rr
2 rr...
3 rrr..

Turn = 286.
  01234
0 rrr..
1 rr...
2 ...r.
3 r.r.r

Turn = 299.
  01234
0 ..rrr
1 ....r
2 ..rrr
3 r..r.

Turn = 312.
  01234
0 rr.r.
1 r...r
2 .r...
3 .rrr.

Turn = 325.
  01234
0 r.rrr
1 r....
2 r...r
3 r...r

Turn = 338.
  01234
0 r.r.r
1 r.r..
2 rr...
3 r...r

Turn = 351.
  01234
0 rr.rr
1 .....
2 rr...
3 ..rrr

Turn = 364.
  01234
0 r.r..
1 r....
2 r.rrr
3 .r.r.

Turn = 377.
  01234
0 ...rr
1 r...r
2 r...r
3 rrr..

Turn = 390.
  01234
0 r.rr.
1 ..rrr
2 .r...
3 rr...

Turn = 403.
  01234
0 rrr..
1 .r..r
2 ...r.
3 rrr..

Turn = 416.
  01234
0 r.r.r
1 ..r..
2 ..rrr
3 .rr..

Turn = 429.
  01234
0 ..rrr
1 r....
2 .rr..
3 r..rr

Turn = 442.
  01234
0 r.r..
1 ..r..
2 ..rrr
3 r..rr

Turn = 455.
  01234
0 r..r.
1 rr...
2 rr.rr
3 .r...

Turn = 468.
  01234
0 rr.rr
1 ..r.r
2 ...r.
3 rr...

Turn = 481.
  01234
0 r.r.r
1 rr...
2 rr...
3 rr...

Turn = 494.
  01234
0 ...rr
1 r..rr
2 r....
3 r.r.r

Turn = 507.
  01234
0 .r..r
1 ...r.
2 r.r..
3 r.rrr

Turn = 520.
  01234
0 .r..r
1 rrr..
2 r....
3 r..rr

Turn = 533.
  01234
0 ...rr
1 rr.rr
2 ....r
3 r.r..

Turn = 546.
  01234
0 r.r..
1 r....
2 .r.rr
3 .rr.r

Turn = 559.
  01234
0 r....
1 .rr.r
2 r.r..
3 r.rr.

Turn = 572.
  01234
0 rr.rr
1 rrr..
2 .....
3 r.r..

Turn = 585.
  01234
0 r..rr
1 rr..r
2 ..r..
3 ...rr

Turn = 598.
  01234
0 r..rr
1 r..rr
2 ..r..
3 .rr..

Turn = 611.
  01234
0 r....
1 r....
2 r..rr
3 rr.rr

Turn = 624.
  01234
0 .rr.r
1 .....
2 ..rr.
3 rr.rr

Turn = 637.
  01234
0 rr..r
1 r....
2 rr..r
3 r.r..

Turn = 650.
  01234
0 rr..r
1 r..rr
2 ....r
3 ..rr.

Turn = 663.
  01234
0 ...r.
1 ..r.r
2 rr..r
3 rrr..

Turn = 676.
  01234
0 rr.rr
1 r...r
2 .r...
3 .r..r

Turn = 689.
  01234
0 rr...
1 ....r
2 rr..r
3 r.rr.

Turn = 702.
  01234
0 r..rr
1 ....r
2 r.r..
3 .r.rr

Turn = 715.
  01234
0 r..rr
1 r.r..
2 rr...
3 .r.r.

Turn = 728.
  01234
0 .r..r
1 rr.r.
2 r....
3 .r.rr

Turn = 741.
  01234
0 rrrrr
1 ....r
2 .r...
3 ..rr.

Turn = 754.
  01234
0 rr..r
1 r..rr
2 r.r..
3 r....

Turn = 767.
  01234
0 rr.rr
1 r..rr
2 r....
3 r....

Turn = 780.
  01234
0 r.r..
1 .r.rr
2 ....r
3 r.rr.

Turn = 793.
  01234
0 r..rr
1 .r..r
2 .....
3 rr.rr

Turn = 806.
  01234
0 rrr.r
1 rr...
2 rr...
3 ....r

Turn = 819.
  01234
0 rr..r
1 r..r.
2 rr...
3 .r..r

Turn = 832.
  01234
0 r...r
1 .r...
2 rr.r.
3 rrr..

Turn = 845.
  01234
0 r....
1 r....
2 .rrr.
3 rrrr.

Turn = 858.
  01234
0 rr...
1 r...r
2 ..rrr
3 ..rr.

Turn = 871.
  01234
0 rr.r.
1 ...r.
2 r.rr.
3 .rr..

Turn = 884.
  01234
0 r..rr
1 r...r
2 .rr..
3 ..r.r

Turn = 897.
  01234
0 ...rr
1 ...r.
2 r.r.r
3 r.rr.

Turn = 910.
  01234
0 r.r..
1 r....
2 .rr..
3 rrrr.

Turn = 923.
  01234
0 rr.rr
1 r.r..
2 rr...
3 r....

Turn = 936.
  01234
0 rr...
1 rr..r
2 rr...
3 .rr..

Turn = 949.
  01234
0 r..r.
1 .....
2 .rrr.
3 r.rrr

Turn = 962.
  01234
0 .r.r.
1 r...r
2 rr.rr
3 r....

Turn = 975.
  01234
0 rr.rr
1 .r..r
2 ....r
3 r.r..

Turn = 988.
  01234
0 ...r.
1 r....
2 rr.r.
3 r.rrr

Turn = 1001.
  01234
0 r..r.
1 rr.rr
2 ....r
3 .r..r

Turn = 1014.
  01234
0 .r.rr
1 .rr..
2 ..rrr
3 .r...

Turn = 1027.
  01234
0 .r.rr
1 .r.rr
2 .rr..
3 ..r..

Turn = 1040.
  01234
0 r.rr.
1 r.r.r
2 rr...
3 ..r..

Turn = 1053.
  01234
0 rrr.r
1 ..r..
2 r..r.
3 ..r.r

*** Darwin 4x5 ***
Turn = 0.
  01234
0 ...f.
1 t...f
2 f.fhh
3 ..rtf

Turn = 198.
  01234
0 ...t.
1 t..tt
2 t.ttt
3 ...tt

Turn = 396.
  01234
0 ...t.
1 t..tt
2 t.ttt
3 ...tt

Turn = 594.
  01234
0 ...t.
1 t..tt
2 t.ttt
3 ...tt
