*** Darwin 10x3 ***
Turn = 0.
  012
0 t..
1 ht.
2 .h.
3 ...
4 ..t
5 .t.
6 ...
7 ...
8 rh.
9 ..t

Turn = 2.
  012
0 t..
1 tt.
2 .t.
3 ...
4 ..t
5 .t.
6 r..
7 ...
8 h..
9 ..t

Turn = 4.
  012
0 t..
1 tt.
2 .t.
3 ...
4 r.t
5 .t.
6 ...
7 ...
8 h..
9 ..t

*** Darwin 5x8 ***
Turn = 0.
  01234567
0 ........
1 ...t....
2 ........
3 f.......
4 .h...h..

Turn = 2.
  01234567
0 ........
1 ...t....
2 ........
3 f.......
4 h....h..

Turn = 4.
  01234567
0 ........
1 ...t....
2 ........
3 f.......
4 h....h..

Turn = 6.
  01234567
0 ........
1 ...t....
2 ........
3 f.......
4 h....h..

Turn = 8.
  01234567
0 ........
1 ...t....
2 ........
3 f.......
4 h....h..

*** Darwin 2x1 ***
Turn = 0.
  0
0 r
1 r

Turn = 1.
  0
0 r
1 r

Turn = 2.
  0
0 r
1 r

Turn = 3.
  0
0 r
1 r

Turn = 4.
  0
0 r
1 r

Turn = 5.
  0
0 r
1 r

Turn = 6.
  0
0 r
1 r

*** Darwin 5x5 ***
Turn = 0.
  01234
0 .....
1 .t...
2 .....
3 .....
4 .....

*** Darwin 10x2 ***
Turn = 0.
  01
0 ..
1 ..
2 ..
3 ..
4 .r
5 .h
6 ..
7 ..
8 ..
9 ..

Turn = 4.
  01
0 .r
1 .h
2 ..
3 ..
4 ..
5 ..
6 ..
7 ..
8 ..
9 ..

Turn = 8.
  01
0 .r
1 .h
2 ..
3 ..
4 ..
5 ..
6 ..
7 ..
8 ..
9 ..

*** Darwin 6x5 ***
Turn = 0.
  01234
0 .....
1 ...ft
2 fh.f.
3 h....
4 t....
5 .....

Turn = 7.
  01234
0 .....
1 ...tt
2 f.tt.
3 t....
4 t....
5 .....

*** Darwin 2x4 ***
Turn = 0.
  0123
0 hh.h
1 ttrf

Turn = 8.
  0123
0 tt.t
1 tttt

*** Darwin 7x1 ***
Turn = 0.
  0
0 .
1 t
2 r
3 .
4 t
5 r
6 h

Turn = 7.
  0
0 .
1 t
2 t
3 .
4 r
5 r
6 r

*** Darwin 3x2 ***
Turn = 0.
  01
0 th
1 fr
2 .h

Turn = 2.
  01
0 tt
1 fr
2 .r

Turn = 4.
  01
0 tt
1 tt
2 .r

Turn = 6.
  01
0 tt
1 tt
2 .t

Turn = 8.
  01
0 tt
1 tt
2 .t

*** Darwin 1x8 ***
Turn = 0.
  01234567
0 .rfff.rt

*** Darwin 10x2 ***
Turn = 0.
  01
0 ..
1 ..
2 ..
3 ..
4 tr
5 ..
6 ..
7 ..
8 ..
9 ..

*** Darwin 2x8 ***
Turn = 0.
  01234567
0 f.t..hhh
1 ...f....

*** Darwin 10x6 ***
Turn = 0.
  012345
0 .....h
1 ..h...
2 ......
3 ......
4 ......
5 ......
6 ..t...
7 ....h.
8 ......
9 fr....

Turn = 7.
  012345
0 ..h...
1 ......
2 ......
3 ......
4 ......
5 ......
6 ..t...
7 ..t..h
8 ......
9 f....r

*** Darwin 7x4 ***
Turn = 0.
  0123
0 h.f.
1 ..f.
2 t...
3 ....
4 ....
5 f...
6 h...

Turn = 7.
  0123
0 .hf.
1 ..f.
2 t...
3 ....
4 ....
5 f...
6 h...

*** Darwin 7x4 ***
Turn = 0.
  0123
0 .h..
1 ..f.
2 .tf.
3 r...
4 t...
5 ....
6 frh.

*** Darwin 4x5 ***
Turn = 0.
  01234
0 ..f.t
1 ....h
2 .....
3 t.hf.

*** Darwin 3x6 ***
Turn = 0.
  012345
0 ..f.h.
1 tr....
2 .t.ht.

Turn = 2.
  012345
0 ..f...
1 t..rh.
2 .t.tt.

Turn = 4.
  012345
0 ..f...
1 t..tt.
2 .t.tt.

Turn = 6.
  012345
0 ..f...
1 t..tt.
2 .t.tt.

Turn = 8.
  012345
0 ..f...
1 t..tt.
2 .t.tt.

Turn = 10.
  012345
0 ..f...
1 t..tt.
2 .t.tt.

Turn = 12.
  012345
0 ..f...
1 t..tt.
2 .t.tt.

*** Darwin 5x2 ***
Turn = 0.
  01
0 .t
1 fh
2 ..
3 t.
4 ..

Turn = 5.
  01
0 .t
1 tt
2 ..
3 t.
4 ..

*** Darwin 9x7 ***
Turn = 0.
  0123456
0 .......
1 .......
2 h.....r
3 .......
4 .......
5 .......
6 .......
7 .......
8 .......

Turn = 1.
  0123456
0 .......
1 h.....r
2 .......
3 .......
4 .......
5 .......
6 .......
7 .......
8 .......

Turn = 2.
  0123456
0 h.....r
1 .......
2 .......
3 .......
4 .......
5 .......
6 .......
7 .......
8 .......

Turn = 3.
  0123456
0 h.....r
1 .......
2 .......
3 .......
4 .......
5 .......
6 .......
7 .......
8 .......

Turn = 4.
  0123456
0 h.....r
1 .......
2 .......
3 .......
4 .......
5 .......
6 .......
7 .......
8 .......

Turn = 5.
  0123456
0 h.....r
1 .......
2 .......
3 .......
4 .......
5 .......
6 .......
7 .......
8 .......

*** Darwin 7x1 ***
Turn = 0.
  0
0 .
1 .
2 .
3 .
4 t
5 .
6 .

*** Darwin 3x5 ***
Turn = 0.
  01234
0 ..t.f
1 ..f..
2 ftf.t

Turn = 1.
  01234
0 ..t.f
1 ..f..
2 ftf.t

Turn = 2.
  01234
0 ..t.f
1 ..f..
2 ttf.t

Turn = 3.
  01234
0 ..t.f
1 ..f..
2 ttf.t

Turn = 4.
  01234
0 ..t.f
1 ..t..
2 ttf.t

*** Darwin 9x6 ***
Turn = 0.
  012345
0 ..r...
1 ....h.
2 .f....
3 ......
4 ......
5 ...hr.
6 ...f.t
7 ......
8 ....t.

*** Darwin 3x6 ***
Turn = 0.
  012345
0 ..tt..
1 ....r.
2 .....r

*** Darwin 10x8 ***
Turn = 0.
  01234567
0 .....f..
1 .....f.f
2 ...r....
3 ........
4 ........
5 f.......
6 .....t..
7 ........
8 ........
9 f.......

*** Darwin 9x6 ***
Turn = 0.
  012345
0 ......
1 .....h
2 ......
3 .t....
4 ......
5 ......
6 ......
7 ......
8 ......

*** Darwin 7x6 ***
Turn = 0.
  012345
0 ......
1 ......
2 ......
3 ......
4 .h..h.
5 ......
6 ......

Turn = 2.
  012345
0 ......
1 ......
2 .h....
3 ......
4 ..h...
5 ......
6 ......

Turn = 4.
  012345
0 .h....
1 ......
2 ......
3 ......
4 h.....
5 ......
6 ......

Turn = 6.
  012345
0 .h....
1 ......
2 ......
3 ......
4 h.....
5 ......
6 ......

Turn = 8.
  012345
0 .h....
1 ......
2 ......
3 ......
4 h.....
5 ......
6 ......

Turn = 10.
  012345
0 .h....
1 ......
2 ......
3 ......
4 h.....
5 ......
6 ......

Turn = 12.
  012345
0 .h....
1 ......
2 ......
3 ......
4 h.....
5 ......
6 ......

Turn = 14.
  012345
0 .h....
1 ......
2 ......
3 ......
4 h.....
5 ......
6 ......
